<?xml version="1.0" encoding="UTF-8" standalone="no"?>
<!-- Created with Inkscape (http://www.inkscape.org/) -->

<svg
   xmlns:dc="http://purl.org/dc/elements/1.1/"
   xmlns:cc="http://creativecommons.org/ns#"
   xmlns:rdf="http://www.w3.org/1999/02/22-rdf-syntax-ns#"
   xmlns:svg="http://www.w3.org/2000/svg"
   xmlns="http://www.w3.org/2000/svg"
   xmlns:sodipodi="http://sodipodi.sourceforge.net/DTD/sodipodi-0.dtd"
   xmlns:inkscape="http://www.inkscape.org/namespaces/inkscape"
   width="744.09448819"
   height="1052.3622047"
   id="svg2"
   version="1.1"
   inkscape:version="0.48.2 r9819"
   sodipodi:docname="background-image.svg">
  <defs
     id="defs4" />
  <sodipodi:namedview
     id="base"
     pagecolor="#ffffff"
     bordercolor="#666666"
     borderopacity="1.0"
     inkscape:pageopacity="0.0"
     inkscape:pageshadow="2"
     inkscape:zoom="0.35"
     inkscape:cx="375"
     inkscape:cy="520"
     inkscape:document-units="px"
     inkscape:current-layer="layer1"
     showgrid="false"
     inkscape:window-width="815"
     inkscape:window-height="593"
     inkscape:window-x="444"
     inkscape:window-y="182"
     inkscape:window-maximized="0" />
  <metadata
     id="metadata7">
    <rdf:RDF>
      <cc:Work
         rdf:about="">
        <dc:format>image/svg+xml</dc:format>
        <dc:type
           rdf:resource="http://purl.org/dc/dcmitype/StillImage" />
        <dc:title />
      </cc:Work>
    </rdf:RDF>
  </metadata>
  <g
     inkscape:label="Layer 1"
     inkscape:groupmode="layer"
     id="layer1">
    <rect
       style="fill:#0000ff;fill-opacity:0.66666669;stroke:none"
       id="rect2985"
       width="201.96851"
       height="290.55118"
       x="222.85715"
       y="152.36218" />
    <path
       sodipodi:type="arc"
       style="fill:#000500;fill-opacity:1;stroke:none"
       id="path3755"
       sodipodi:cx="291.42856"
       sodipodi:cy="390.93362"
       sodipodi:rx="14.285714"
       sodipodi:ry="21.428572"
       d="m 277.39428,386.93093 a 14.285714,21.428572 0 1 1 -0.0327,0.26763"
       sodipodi:start="3.3294887"
       sodipodi:end="9.5999758"
       sodipodi:open="true"
       transform="matrix(1.7496989,0,0,1.1664538,-230.62911,-94.354188)" />
  </g>
</svg>
